{
    "KPlugin": {
        "Description": "Turns off signal-transmitting devices",
        "Description[ar]": "يقوم بإيقاف تشغيل أجهزة إرسال الإشارات",
        "Description[bg]": "Изключва безжичните устройства",
        "Description[ca@valencia]": "Apaga els dispositius de transmissió de senyals",
        "Description[ca]": "Apaga els dispositius de transmissió de senyals",
        "Description[de]": "Schaltet alle drahtlos sendenden Geräte ab",
        "Description[en_GB]": "Turns off signal-transmitting devices",
        "Description[es]": "Apaga los dispositivos que emiten señales",
        "Description[eu]": "Seinaleak transmititzeko gailuak itzaltzen ditu",
        "Description[fi]": "Sammuttaa signaaleja lähettävät laitteet",
        "Description[fr]": "Éteint les appareils transmettant des signaux",
        "Description[ia]": "Extingue dispositivos de transmission de signal",
        "Description[it]": "Spegne i dispositivi che trasmettono segnale",
        "Description[ka]": "სიგნალის გადამცემი მოწყობილობების გამორთვა",
        "Description[ko]": "무선 장치 끄기",
        "Description[lt]": "Išjungia signalą perduodančius įrenginius",
        "Description[nl]": "Zet apparaten die een radiosignaal uitzenden uit",
        "Description[nn]": "Slå av einingar som sender signal",
        "Description[pl]": "Wyłącza urządzenia nadające sygnał",
        "Description[pt]": "Desliga os dispositivos de transmissão de sinais",
        "Description[pt_BR]": "Desliga os dispositivos de transmissão de sinais",
        "Description[ru]": "Выключает все радиопередающие устройства в компьютере",
        "Description[sl]": "Izklopi naprave, ki oddajajo signal",
        "Description[sv]": "Stänger av sändenheter",
        "Description[ta]": "அருகலை சாதனங்களை முடக்கும்",
        "Description[tr]": "Sinyal ileten aygıtları kapatır",
        "Description[uk]": "Вимкнути пристрої, що передають радіосигнал",
        "Description[x-test]": "xxTurns off signal-transmitting devicesxx",
        "Description[zh_CN]": "关闭信号收发设备",
        "Description[zh_TW]": "關閉訊號傳送裝置",
        "Icon": "preferences-system-network",
        "Name": "Wireless",
        "Name[ar]": "لاسلكي",
        "Name[az]": "Simsiz bağlantı",
        "Name[bg]": "Безжични устройства",
        "Name[ca@valencia]": "Sense fil",
        "Name[ca]": "Sense fil",
        "Name[cs]": "Bezdrátové",
        "Name[da]": "Trådløst",
        "Name[de]": "Drahtlos",
        "Name[el]": "Ασύρματο",
        "Name[en_GB]": "Wireless",
        "Name[es]": "Red inalámbrica",
        "Name[et]": "Juhtmeta ühendus",
        "Name[eu]": "Haririk gabekoa",
        "Name[fi]": "Langaton verkko",
        "Name[fr]": "Sans fil",
        "Name[gl]": "Sen fíos",
        "Name[he]": "אלחוטי",
        "Name[hu]": "Vezeték nélküli",
        "Name[ia]": "Wireless (Sin Cablos)",
        "Name[id]": "Nirkabel",
        "Name[it]": "Senza fili",
        "Name[ja]": "ワイヤレス",
        "Name[ka]": "Wi-Fi",
        "Name[ko]": "무선",
        "Name[lt]": "Belaidis",
        "Name[nb]": "Trådløs",
        "Name[nl]": "Draadloos",
        "Name[nn]": "Trådlaust",
        "Name[pa]": "ਬੇਤਾਰ",
        "Name[pl]": "Sieci bezprzewodowe",
        "Name[pt]": "Sem-Fios",
        "Name[pt_BR]": "Sem fio",
        "Name[ro]": "Fără fir",
        "Name[ru]": "Беспроводные сети",
        "Name[sk]": "Bezdrôtové zariadenia",
        "Name[sl]": "Brezžično",
        "Name[sr@ijekavian]": "Бежична",
        "Name[sr@ijekavianlatin]": "Bežična",
        "Name[sr@latin]": "Bežična",
        "Name[sr]": "Бежична",
        "Name[sv]": "Trådlös",
        "Name[ta]": "அருகலை",
        "Name[tg]": "Бесим",
        "Name[tr]": "Kablosuz",
        "Name[uk]": "Бездротова",
        "Name[x-test]": "xxWirelessxx",
        "Name[zh_CN]": "无线",
        "Name[zh_TW]": "無線"
    },
    "X-KDE-PowerDevil-Action-ConfigPriority": 60,
    "X-KDE-PowerDevil-Action-HasRuntimeRequirement": true,
    "X-KDE-PowerDevil-Action-ID": "WirelessPowerSaving",
    "X-KDE-PowerDevil-Action-RegistersDBusInterface": true,
    "X-KDE-PowerDevil-Action-UIComponentLibrary": "powerdevilwirelesspowersavingaction_config"
}
